module gitlab.com/attunga/stroomc

go 1.16

require (
	github.com/mitchellh/go-homedir v1.1.0
	github.com/sirupsen/logrus v1.8.1
	github.com/spf13/cast v1.4.0 // indirect
	github.com/spf13/cobra v1.2.1
	github.com/spf13/viper v1.8.1
	golang.org/x/sys v0.0.0-20210809222454-d867a43fc93e // indirect
	golang.org/x/text v0.3.7 // indirect
)
